plan_tenure_id,tenure,merchant_subvention_perc,merchant_fee_perc,customer_proc_fee_perc,customer_roi_perc,downpayment
3_month_1,3,NA,NA,NA,NA,product_specific
6_month_1,6,5,1,2,0,product_specific
9_month_1,9,0,1,2,1.5,product_specific
9_month_2,9,3,1,2,0.75,product_specific
9_month_3,9,8,1,2,0,product_specific
12_month_1,12,0,1,2,1.5,product_specific
